0,30,0
0.02,30,3.6
0.04,30,7.2
0.06,30,10.8
0.08,30,14.4
0.1,30,18
0.12,30,21.6
0.14,30,25.2
0.16,30,28.8
0.18,30,32.4
0.2,30,36
0.22,30,39.6
0.24,30,43.2
0.26,30,46.8
0.28,30,50.4
0.3,30,54
0.32,30,57.6
0.34,30,61.2
0.36,30,64.8
0.38,30,68.4
0.4,30,72
0.42,30,75.6
0.44,30,79.2
0.46,30,82.8
0.48,30,86.4
0.5,30,90
0.52,30,93.6
0.54,30,97.2
0.56,30,100.8
0.58,30,104.4
0.6,30,108
0.62,30,111.6
0.64,30,115.2
0.66,30,118.8
0.68,30,122.4
0.7,30,126
0.72,30,129.6
0.74,30,133.2
0.76,30,136.8
0.78,30,140.4
0.8,30,144
0.82,30,147.6
0.84,30,151.2
0.86,30,154.8
0.88,30,158.4
0.9,30,162
0.92,30,165.6
0.94,30,169.2
0.96,30,172.8
0.98,30,176.4
1,30,180
1.02,30,183.6
1.04,30,187.2
1.06,30,190.8
1.08,30,194.4
1.1,30,198
1.12,30,201.6
1.14,30,205.2
1.16,30,208.8
1.18,30,212.4
1.2,30,216
1.22,30,219.6
1.24,30,223.2
1.26,30,226.8
1.28,30,230.4
1.3,30,234
1.32,30,237.6
1.34,30,241.2
1.36,30,244.8
1.38,30,248.4
1.4,30,252
1.42,30,255.6
1.44,30,259.2
1.46,30,262.8
1.48,30,266.4
1.5,30,270
1.52,30,273.6
1.54,30,277.2
1.56,30,280.8
1.58,30,284.4
1.6,30,288
1.62,30,291.6
1.64,30,295.2
1.66,30,298.8
1.68,30,302.4
1.7,30,306
1.72,30,309.6
1.74,30,313.2
1.76,30,316.8
1.78,30,320.4
1.8,30,324
1.82,30,327.6
1.84,30,331.2
1.86,30,334.8
1.88,30,338.4
1.9,30,342
1.92,30,345.6
1.94,30,349.2
1.96,30,352.8
1.98,30,356.4
2,30,360
2.02,30,363.6
2.04,30,367.2
2.06,30,370.8
2.08,30,374.4
2.1,30,378
2.12,30,381.6
2.14,30,385.2
2.16,30,388.8
2.18,30,392.4
2.2,30,396
2.22,30,399.6
2.24,30,403.2
2.26,30,406.8
2.28,30,410.4
2.3,30,414
2.32,30,417.6
2.34,30,421.2
2.36,30,424.8
2.38,30,428.4
2.4,30,432
2.42,30,435.6
2.44,30,439.2
2.46,30,442.8
2.48,30,446.4
2.5,30,450
2.52,30,453.6
2.54,30,457.2
2.56,30,460.8
2.58,30,464.4
2.6,30,468
2.62,30,471.6
2.64,30,475.2
2.66,30,478.8
2.68,30,482.4
2.7,30,486
2.72,30,489.6
2.74,30,493.2
2.76,30,496.8
2.78,30,500.4
2.8,30,504
2.82,30,507.6
2.84,30,511.2
2.86,30,514.8
2.88,30,518.4
2.9,30,522
2.92,30,525.6
2.94,30,529.2
2.96,30,532.8
2.98,30,536.4
3,30,540
3.02,30,543.6
3.04,30,547.2
3.06,30,550.8
3.08,30,554.4
3.1,30,558
3.12,30,561.6
3.14,30,565.2
3.16,30,568.8
3.18,30,572.4
3.2,30,576
3.22,30,579.6
3.24,30,583.2
3.26,30,586.8
3.28,30,590.4
3.3,30,594
3.32,30,597.6
3.34,30,601.2
3.36,30,604.8
3.38,30,608.4
3.4,30,612
3.42,30,615.6
3.44,30,619.2
3.46,30,622.8
3.48,30,626.4
3.5,30,630
3.52,30,633.6
3.54,30,637.2
3.56,30,640.8
3.58,30,644.4
3.6,30,648
3.62,30,651.6
3.64,30,655.2
3.66,30,658.8
3.68,30,662.4
3.7,30,666
3.72,30,669.6
3.74,30,673.2
3.76,30,676.8
3.78,30,680.4
3.8,30,684
3.82,30,687.6
3.84,30,691.2
3.86,30,694.8
3.88,30,698.4
3.9,30,702
3.92,30,705.6
3.94,30,709.2
3.96,30,712.8
3.98,30,716.4
4,30,720
4.02,0,720.09
4.04,0,720.09
4.06,0,720.09
4.08,0,720.09
4.1,0,720.09
4.12,0,720.09
4.14,0,720.09
4.16,0,720.09
4.18,0,720.09
4.2,0,720.09
4.22,0,720.09
4.24,0,720.09
4.26,0,720.09
4.28,0,720.09
4.3,0,720.09
4.32,0,720.09
4.34,0,720.09
4.36,0,720.09
4.38,0,720.09
4.4,0,720.09
4.42,0,720.09
4.44,0,720.09
4.46,0,720.09
4.48,0,720.09
4.5,0,720.09
4.52,0,720.09
4.54,0,720.09
4.56,0,720.09
4.58,0,720.09
4.6,0,720.09
4.62,0,720.09
4.64,0,720.09
4.66,0,720.09
4.68,0,720.09
4.7,0,720.09
4.72,0,720.09
4.74,0,720.09
4.76,0,720.09
4.78,0,720.09
4.8,0,720.09
4.82,0,720.09
4.84,0,720.09
4.86,0,720.09
4.88,0,720.09
4.9,0,720.09
4.92,0,720.09
4.94,0,720.09
4.96,0,720.09
4.98,0,720.09
5,0,720.09
5.02,0,720.09
5.04,0,720.09
5.06,0,720.09
5.08,0,720.09
5.1,0,720.09
5.12,0,720.09
5.14,0,720.09
5.16,0,720.09
5.18,0,720.09
5.2,0,720.09
5.22,0,720.09
5.24,0,720.09
5.26,0,720.09
5.28,0,720.09
5.3,0,720.09
5.32,0,720.09
5.34,0,720.09
5.36,0,720.09
5.38,0,720.09
5.4,0,720.09
5.42,0,720.09
5.44,0,720.09
5.46,0,720.09
5.48,0,720.09
5.5,0,720.09
5.52,0,720.09
5.54,0,720.09
5.56,0,720.09
5.58,0,720.09
5.6,0,720.09
5.62,0,720.09
5.64,0,720.09
5.66,0,720.09
5.68,0,720.09
5.7,0,720.09
5.72,0,720.09
5.74,0,720.09
5.76,0,720.09
5.78,0,720.09
5.8,0,720.09
5.82,0,720.09
5.84,0,720.09
5.86,0,720.09
5.88,0,720.09
5.9,0,720.09
5.92,0,720.09
5.94,0,720.09
5.96,0,720.09
5.98,0,720.09
6,0,720.09
6.02,0,720.09
6.04,0,720.09
6.06,0,720.09
6.08,0,720.09
6.1,0,720.09
6.12,0,720.09
6.14,0,720.09
6.16,0,720.09
6.18,0,720.09
6.2,0,720.09
6.22,0,720.09
6.24,0,720.09
6.26,0,720.09
6.28,0,720.09
6.3,0,720.09
6.32,0,720.09
6.34,0,720.09
6.36,0,720.09
6.38,0,720.09
6.4,0,720.09
6.42,0,720.09
6.44,0,720.09
6.46,0,720.09
6.48,0,720.09
6.5,0,720.09
6.52,0,720.09
6.54,0,720.09
6.56,0,720.09
6.58,0,720.09
6.6,0,720.09
6.62,0,720.09
6.64,0,720.09
6.66,0,720.09
6.68,0,720.09
6.7,0,720.09
6.72,0,720.09
6.74,0,720.09
6.76,0,720.09
6.78,0,720.09
6.8,0,720.09
6.82,0,720.09
6.84,0,720.09
6.86,0,720.09
6.88,0,720.09
6.9,0,720.09
6.92,0,720.09
6.94,0,720.09
6.96,0,720.09
6.98,0,720.09
7,0,720.09
7.02,-60,713.07
7.04,-60,705.87
7.06,-60,698.67
7.08,-60,691.47
7.1,-60,684.27
7.12,-60,677.07
7.14,-60,669.87
7.16,-60,662.67
7.18,-60,655.47
7.2,-60,648.27
7.22,-60,641.07
7.24,-60,633.87
7.26,-60,626.67
7.28,-60,619.47
7.3,-60,612.27
7.32,-60,605.07
7.34,-60,597.87
7.36,-60,590.67
7.38,-60,583.47
7.4,-60,576.27
7.42,-60,569.07
7.44,-60,561.87
7.46,-60,554.67
7.48,-60,547.47
7.5,-60,540.27
7.52,-60,533.07
7.54,-60,525.87
7.56,-60,518.67
7.58,-60,511.47
7.6,-60,504.27
7.62,-60,497.07
7.64,-60,489.87
7.66,-60,482.67
7.68,-60,475.47
7.7,-60,468.27
7.72,-60,461.07
7.74,-60,453.87
7.76,-60,446.67
7.78,-60,439.47
7.8,-60,432.27
7.82,-60,425.07
7.84,-60,417.87
7.86,-60,410.67
7.88,-60,403.47
7.9,-60,396.27
7.92,-60,389.07
7.94,-60,381.87
7.96,-60,374.67
7.98,-60,367.47
8,-60,360.27
8.02,0,360.09
8.04,0,360.09
8.06,0,360.09
8.08,0,360.09
8.1,0,360.09
8.12,0,360.09
8.14,0,360.09
8.16,0,360.09
8.18,0,360.09
8.2,0,360.09
8.22,0,360.09
8.24,0,360.09
8.26,0,360.09
8.28,0,360.09
8.3,0,360.09
8.32,0,360.09
8.34,0,360.09
8.36,0,360.09
8.38,0,360.09
8.4,0,360.09
8.42,0,360.09
8.44,0,360.09
8.46,0,360.09
8.48,0,360.09
8.5,0,360.09
8.52,0,360.09
8.54,0,360.09
8.56,0,360.09
8.58,0,360.09
8.6,0,360.09
8.62,0,360.09
8.64,0,360.09
8.66,0,360.09
8.68,0,360.09
8.7,0,360.09
8.72,0,360.09
8.74,0,360.09
8.76,0,360.09
8.78,0,360.09
8.8,0,360.09
8.82,0,360.09
8.84,0,360.09
8.86,0,360.09
8.88,0,360.09
8.9,0,360.09
8.92,0,360.09
8.94,0,360.09
8.96,0,360.09
8.98,0,360.09
9,0,360.09
9.02,0,360.09
9.04,0,360.09
9.06,0,360.09
9.08,0,360.09
9.1,0,360.09
9.12,0,360.09
9.14,0,360.09
9.16,0,360.09
9.18,0,360.09
9.2,0,360.09
9.22,0,360.09
9.24,0,360.09
9.26,0,360.09
9.28,0,360.09
9.3,0,360.09
9.32,0,360.09
9.34,0,360.09
9.36,0,360.09
9.38,0,360.09
9.4,0,360.09
9.42,0,360.09
9.44,0,360.09
9.46,0,360.09
9.48,0,360.09
9.5,0,360.09
9.52,0,360.09
9.54,0,360.09
9.56,0,360.09
9.58,0,360.09
9.6,0,360.09
9.62,0,360.09
9.64,0,360.09
9.66,0,360.09
9.68,0,360.09
9.7,0,360.09
9.72,0,360.09
9.74,0,360.09
9.76,0,360.09
9.78,0,360.09
9.8,0,360.09
9.82,0,360.09
9.84,0,360.09
9.86,0,360.09
9.88,0,360.09
9.9,0,360.09
9.92,0,360.09
9.94,0,360.09
9.96,0,360.09
9.98,0,360.09
10,0,360.09
10.02,0,360.09
10.04,0,360.09
10.06,0,360.09
10.08,0,360.09
10.1,0,360.09
10.12,0,360.09
10.14,0,360.09
10.16,0,360.09
10.18,0,360.09
10.2,0,360.09
10.22,0,360.09
10.24,0,360.09
10.26,0,360.09
10.28,0,360.09
10.3,0,360.09
10.32,0,360.09
10.34,0,360.09
10.36,0,360.09
10.38,0,360.09
10.4,0,360.09
10.42,0,360.09
10.44,0,360.09
10.46,0,360.09
10.48,0,360.09
10.5,0,360.09
10.52,0,360.09
10.54,0,360.09
10.56,0,360.09
10.58,0,360.09
10.6,0,360.09
10.62,0,360.09
10.64,0,360.09
10.66,0,360.09
10.68,0,360.09
10.7,0,360.09
10.72,0,360.09
10.74,0,360.09
10.76,0,360.09
10.78,0,360.09
10.8,0,360.09
10.82,0,360.09
10.84,0,360.09
10.86,0,360.09
10.88,0,360.09
10.9,0,360.09
10.92,0,360.09
10.94,0,360.09
10.96,0,360.09
10.98,0,360.09
11,0,360.09
11.02,0.6,360.13
11.04,1.2,360.23
11.06,1.8,360.41
11.08,2.4,360.67
11.1,3,360.99
11.12,3.6,361.39
11.14,4.2,361.85
11.16,4.8,362.39
11.18,5.4,363.01
11.2,6,363.69
11.22,6.6,364.45
11.24,7.2,365.27
11.26,7.8,366.17
11.28,8.4,367.15
11.3,9,368.19
11.32,9.6,369.31
11.34,10.2,370.49
11.36,10.8,371.75
11.38,11.4,373.09
11.4,12,374.49
11.42,12.6,375.97
11.44,13.2,377.51
11.46,13.8,379.13
11.48,14.4,380.83
11.5,15,382.59
11.52,15.6,384.43
11.54,16.2,386.33
11.56,16.8,388.31
11.58,17.4,390.37
11.6,18,392.49
11.62,18.6,394.69
11.64,19.2,396.95
11.66,19.8,399.29
11.68,20.4,401.71
11.7,21,404.19
11.72,21.6,406.75
11.74,22.2,409.37
11.76,22.8,412.07
11.78,23.4,414.85
11.8,24,417.69
11.82,24.6,420.61
11.84,25.2,423.59
11.86,25.8,426.65
11.88,26.4,429.79
11.9,27,432.99
11.92,27.6,436.27
11.94,28.2,439.61
11.96,28.8,443.03
11.98,29.4,446.53
12,30,450.09
12.02,29.4,453.65
12.04,28.8,457.15
12.06,28.2,460.57
12.08,27.6,463.91
12.1,27,467.19
12.12,26.4,470.39
12.14,25.8,473.53
12.16,25.2,476.59
12.18,24.6,479.57
12.2,24,482.49
12.22,23.4,485.33
12.24,22.8,488.11
12.26,22.2,490.81
12.28,21.6,493.43
12.3,21,495.99
12.32,20.4,498.47
12.34,19.8,500.89
12.36,19.2,503.23
12.38,18.6,505.49
12.4,18,507.69
12.42,17.4,509.81
12.44,16.8,511.87
12.46,16.2,513.85
12.48,15.6,515.75
12.5,15,517.59
12.52,14.4,519.35
12.54,13.8,521.05
12.56,13.2,522.67
12.58,12.6,524.21
12.6,12,525.69
12.62,11.4,527.09
12.64,10.8,528.43
12.66,10.2,529.69
12.68,9.6,530.87
12.7,9,531.99
12.72,8.4,533.03
12.74,7.8,534.01
12.76,7.2,534.91
12.78,6.6,535.73
12.8,6,536.49
12.82,5.4,537.17
12.84,4.8,537.79
12.86,4.2,538.33
12.88,3.6,538.79
12.9,3,539.19
12.92,2.4,539.51
12.94,1.8,539.77
12.96,1.2,539.95
12.98,0.6,540.05
13,0,540.09
13.02,0,540.09
13.04,0,540.09
13.06,0,540.09
13.08,0,540.09
13.1,0,540.09
13.12,0,540.09
13.14,0,540.09
13.16,0,540.09
13.18,0,540.09
13.2,0,540.09
13.22,0,540.09
13.24,0,540.09
13.26,0,540.09
13.28,0,540.09
13.3,0,540.09
13.32,0,540.09
13.34,0,540.09
13.36,0,540.09
13.38,0,540.09
13.4,0,540.09
13.42,0,540.09
13.44,0,540.09
13.46,0,540.09
13.48,0,540.09
13.5,0,540.09
13.52,0,540.09
13.54,0,540.09
13.56,0,540.09
13.58,0,540.09
13.6,0,540.09
13.62,0,540.09
13.64,0,540.09
13.66,0,540.09
13.68,0,540.09
13.7,0,540.09
13.72,0,540.09
13.74,0,540.09
13.76,0,540.09
13.78,0,540.09
13.8,0,540.09
13.82,0,540.09
13.84,0,540.09
13.86,0,540.09
13.88,0,540.09
13.9,0,540.09
13.92,0,540.09
13.94,0,540.09
13.96,0,540.09
13.98,0,540.09
14,0,540.09
14.02,0,540.09
14.04,0,540.09
14.06,0,540.09
14.08,0,540.09
14.1,0,540.09
14.12,0,540.09
14.14,0,540.09
14.16,0,540.09
14.18,0,540.09
14.2,0,540.09
14.22,0,540.09
14.24,0,540.09
14.26,0,540.09
14.28,0,540.09
14.3,0,540.09
14.32,0,540.09
14.34,0,540.09
14.36,0,540.09
14.38,0,540.09
14.4,0,540.09
14.42,0,540.09
14.44,0,540.09
14.46,0,540.09
14.48,0,540.09
14.5,0,540.09
14.52,0,540.09
14.54,0,540.09
14.56,0,540.09
14.58,0,540.09
14.6,0,540.09
14.62,0,540.09
14.64,0,540.09
14.66,0,540.09
14.68,0,540.09
14.7,0,540.09
14.72,0,540.09
14.74,0,540.09
14.76,0,540.09
14.78,0,540.09
14.8,0,540.09
14.82,0,540.09
14.84,0,540.09
14.86,0,540.09
14.88,0,540.09
14.9,0,540.09
14.92,0,540.09
14.94,0,540.09
14.96,0,540.09
14.98,0,540.09
15,0,540.09
