0,450,0
0.05,450,135
0.1,450,270
0.15,450,405
0.2,450,540
0.25,450,675
0.3,450,810
0.35,450,945
0.4,450,1080
0.45,450,1215
0.5,450,1350
0.55,450,1485
0.6,450,1620
0.65,450,1755
0.7,450,1890
0.75,450,2025
0.8,450,2160
0.85,450,2295
0.9,450,2430
0.95,450,2565
1,450,2700
1.05,450,2835
1.1,450,2970
1.15,450,3105
1.2,450,3240
1.25,450,3375
1.3,450,3510
1.35,450,3645
1.4,450,3780
1.45,450,3915
1.5,450,4050
1.55,450,4185
1.6,450,4320
1.65,450,4455
1.7,450,4590
1.75,450,4725
1.8,450,4860
1.85,450,4995
1.9,450,5130
1.95,450,5265
2,450,5400
2.05,450,5535
2.1,450,5670
2.15,450,5805
2.2,450,5940
2.25,450,6075
2.3,450,6210
2.35,450,6345
2.4,450,6480
2.45,450,6615
2.5,450,6750
2.55,450,6885
2.6,450,7020
2.65,450,7155
2.7,450,7290
2.75,450,7425
2.8,450,7560
2.85,450,7695
2.9,450,7830
2.95,450,7965
3,450,8100
3.05,450,8235
3.1,450,8370
3.15,450,8505
3.2,450,8640
3.25,450,8775
3.3,450,8910
3.35,450,9045
3.4,450,9180
3.45,450,9315
3.5,450,9450
3.55,450,9585
3.6,450,9720
3.65,450,9855
3.7,450,9990
3.75,450,10125
3.8,450,10260
3.85,450,10395
3.9,450,10530
3.95,450,10665
4,450,10800
4.05,0,10801.35
4.1,0,10801.35
4.15,0,10801.35
4.2,0,10801.35
4.25,0,10801.35
4.3,0,10801.35
4.35,0,10801.35
4.4,0,10801.35
4.45,0,10801.35
4.5,0,10801.35
4.55,0,10801.35
4.6,0,10801.35
4.65,0,10801.35
4.7,0,10801.35
4.75,0,10801.35
4.8,0,10801.35
4.85,0,10801.35
4.9,0,10801.35
4.95,0,10801.35
5,0,10801.35
5.05,0,10801.35
5.1,0,10801.35
5.15,0,10801.35
5.2,0,10801.35
5.25,0,10801.35
5.3,0,10801.35
5.35,0,10801.35
5.4,0,10801.35
5.45,0,10801.35
5.5,0,10801.35
5.55,0,10801.35
5.6,0,10801.35
5.65,0,10801.35
5.7,0,10801.35
5.75,0,10801.35
5.8,0,10801.35
5.85,0,10801.35
5.9,0,10801.35
5.95,0,10801.35
6,0,10801.35
6.05,0,10801.35
6.1,0,10801.35
6.15,0,10801.35
6.2,0,10801.35
6.25,0,10801.35
6.3,0,10801.35
6.35,0,10801.35
6.4,0,10801.35
6.45,0,10801.35
6.5,0,10801.35
6.55,0,10801.35
6.6,0,10801.35
6.65,0,10801.35
6.7,0,10801.35
6.75,0,10801.35
6.8,0,10801.35
6.85,0,10801.35
6.9,0,10801.35
6.95,0,10801.35
7,0,10801.35
7.05,-900,10534.05
7.1,-900,10264.05
7.15,-900,9994.05
7.2,-900,9724.05
7.25,-900,9454.05
7.3,-900,9184.05
7.35,-900,8914.05
7.4,-900,8644.05
7.45,-900,8374.05
7.5,-900,8104.05
7.55,-900,7834.05
7.6,-900,7564.05
7.65,-900,7294.05
7.7,-900,7024.05
7.75,-900,6754.05
7.8,-900,6484.05
7.85,-900,6214.05
7.9,-900,5944.05
7.95,-900,5674.05
8,-900,5404.05
8.05,0,5401.35
8.1,0,5401.35
8.15,0,5401.35
8.2,0,5401.35
8.25,0,5401.35
8.3,0,5401.35
8.35,0,5401.35
8.4,0,5401.35
8.45,0,5401.35
8.5,0,5401.35
8.55,0,5401.35
8.6,0,5401.35
8.65,0,5401.35
8.7,0,5401.35
8.75,0,5401.35
8.8,0,5401.35
8.85,0,5401.35
8.9,0,5401.35
8.95,0,5401.35
9,0,5401.35
9.05,0,5401.35
9.1,0,5401.35
9.15,0,5401.35
9.2,0,5401.35
9.25,0,5401.35
9.3,0,5401.35
9.35,0,5401.35
9.4,0,5401.35
9.45,0,5401.35
9.5,0,5401.35
9.55,0,5401.35
9.6,0,5401.35
9.65,0,5401.35
9.7,0,5401.35
9.75,0,5401.35
9.8,0,5401.35
9.85,0,5401.35
9.9,0,5401.35
9.95,0,5401.35
10,0,5401.35
10.05,0,5401.35
10.1,0,5401.35
10.15,0,5401.35
10.2,0,5401.35
10.25,0,5401.35
10.3,0,5401.35
10.35,0,5401.35
10.4,0,5401.35
10.45,0,5401.35
10.5,0,5401.35
10.55,0,5401.35
10.6,0,5401.35
10.65,0,5401.35
10.7,0,5401.35
10.75,0,5401.35
10.8,0,5401.35
10.85,0,5401.35
10.9,0,5401.35
10.95,0,5401.35
11,0,5401.35
11.05,22.5,5404.8
11.1,45,5414.85
11.15,67.5,5431.8
11.2,90,5455.35
11.25,112.5,5485.8
11.3,135,5522.85
11.35,157.5,5566.8
11.4,180,5617.35
11.45,202.5,5674.8
11.5,225,5738.85
11.55,247.5,5809.8
11.6,270,5887.35
11.65,292.5,5971.8
11.7,315,6062.85
11.75,337.5,6160.8
11.8,360,6265.35
11.85,382.5,6376.8
11.9,405,6494.85
11.95,427.5,6619.8
12,450,6751.35
12.05,427.5,6883.05
12.1,405,7007.85
12.15,382.5,7126.05
12.2,360,7237.35
12.25,337.5,7342.05
12.3,315,7439.85
12.35,292.5,7531.05
12.4,270,7615.35
12.45,247.5,7693.05
12.5,225,7763.85
12.55,202.5,7828.05
12.6,180,7885.35
12.65,157.5,7936.05
12.7,135,7979.85
12.75,112.5,8017.05
12.8,90,8047.35
12.85,67.5,8071.05
12.9,45,8087.85
12.95,22.5,8098.05
13,0,8101.35
13.05,0,8101.35
13.1,0,8101.35
13.15,0,8101.35
13.2,0,8101.35
13.25,0,8101.35
13.3,0,8101.35
13.35,0,8101.35
13.4,0,8101.35
13.45,0,8101.35
13.5,0,8101.35
13.55,0,8101.35
13.6,0,8101.35
13.65,0,8101.35
13.7,0,8101.35
13.75,0,8101.35
13.8,0,8101.35
13.85,0,8101.35
13.9,0,8101.35
13.95,0,8101.35
14,0,8101.35
14.05,0,8101.35
14.1,0,8101.35
14.15,0,8101.35
14.2,0,8101.35
14.25,0,8101.35
14.3,0,8101.35
14.35,0,8101.35
14.4,0,8101.35
14.45,0,8101.35
14.5,0,8101.35
14.55,0,8101.35
14.6,0,8101.35
14.65,0,8101.35
14.7,0,8101.35
14.75,0,8101.35
14.8,0,8101.35
14.85,0,8101.35
14.9,0,8101.35
14.95,0,8101.35
15,0,8101.35
